%YAML 1.1
%TAG !u! tag:unity3d.com,2011:
--- !u!114 &11400000
MonoBehaviour:
  m_ObjectHideFlags: 0
  m_CorrespondingSourceObject: {fileID: 0}
  m_PrefabInstance: {fileID: 0}
  m_PrefabAsset: {fileID: 0}
  m_GameObject: {fileID: 0}
  m_Enabled: 1
  m_EditorHideFlags: 0
  m_Script: {fileID: 11500000, guid: c7a7c8c8a32ded34aa233908bc5520f5, type: 3}
  m_Name: 00_X_Disp 3
  m_EditorClassIdentifier: 
  m_name: Daedalus
  m_description: 
  m_image: {fileID: 0}
  m_sound: {fileID: 0}
  m_imageArray:
  - {fileID: 21300000, guid: 9086952e36863ad488b24ca03c37288c, type: 3}
