%YAML 1.1
%TAG !u! tag:unity3d.com,2011:
--- !u!114 &11400000
MonoBehaviour:
  m_ObjectHideFlags: 0
  m_CorrespondingSourceObject: {fileID: 0}
  m_PrefabInstance: {fileID: 0}
  m_PrefabAsset: {fileID: 0}
  m_GameObject: {fileID: 0}
  m_Enabled: 1
  m_EditorHideFlags: 0
  m_Script: {fileID: 11500000, guid: c7a7c8c8a32ded34aa233908bc5520f5, type: 3}
  m_Name: 00_ 6
  m_EditorClassIdentifier: 
  m_name: 
  m_description: 
  m_image: {fileID: 0}
  m_sound: {fileID: 0}
  m_imageArray:
  - {fileID: 21300000, guid: 25ed5f3d3d0061d4d9ca7918f80b1749, type: 3}
