%YAML 1.1
%TAG !u! tag:unity3d.com,2011:
--- !u!114 &11400000
MonoBehaviour:
  m_ObjectHideFlags: 0
  m_CorrespondingSourceObject: {fileID: 0}
  m_PrefabInstance: {fileID: 0}
  m_PrefabAsset: {fileID: 0}
  m_GameObject: {fileID: 0}
  m_Enabled: 1
  m_EditorHideFlags: 0
  m_Script: {fileID: 11500000, guid: 3406569e8b5672348a197c3449a86d32, type: 3}
  m_Name: Bird 3
  m_EditorClassIdentifier: 
  m_name: Oropendola
  m_description: 
  m_image: {fileID: 21300000, guid: feaf264b6c0fd0d43a7ac9b4b7f78d45, type: 3}
  m_sound: {fileID: 8300000, guid: 57303fdccba22c846bd4bb18825c06e5, type: 3}
