%YAML 1.1
%TAG !u! tag:unity3d.com,2011:
--- !u!114 &11400000
MonoBehaviour:
  m_ObjectHideFlags: 0
  m_CorrespondingSourceObject: {fileID: 0}
  m_PrefabInstance: {fileID: 0}
  m_PrefabAsset: {fileID: 0}
  m_GameObject: {fileID: 0}
  m_Enabled: 1
  m_EditorHideFlags: 0
  m_Script: {fileID: 11500000, guid: 3406569e8b5672348a197c3449a86d32, type: 3}
  m_Name: Bird 2
  m_EditorClassIdentifier: 
  m_name: Alcaudon
  m_description: "Los alcaudones o verdugos son aves paseriformes que forman la familia
    Laniidae. Son conocidos por sus h\xE1bitos de cazar insectos, peque\xF1as aves,
    reptiles o mam\xEDferos y empalar sus cuerpos en tallos espinosos. Esto los ayuda
    a despedazar la carne en fragmentos m\xE1s convenientes y adem\xE1s le sirve como
    despensa, por lo que regresan luego a servirse de las porciones restantes. "
  m_image: {fileID: 21300000, guid: 8993323e872ad1d46b08039019c514eb, type: 3}
  m_sound: {fileID: 8300000, guid: 1e04d2a9a50ef474882f6201a95b118a, type: 3}
