%YAML 1.1
%TAG !u! tag:unity3d.com,2011:
--- !u!114 &11400000
MonoBehaviour:
  m_ObjectHideFlags: 0
  m_CorrespondingSourceObject: {fileID: 0}
  m_PrefabInstance: {fileID: 0}
  m_PrefabAsset: {fileID: 0}
  m_GameObject: {fileID: 0}
  m_Enabled: 1
  m_EditorHideFlags: 0
  m_Script: {fileID: 11500000, guid: 3406569e8b5672348a197c3449a86d32, type: 3}
  m_Name: Bird 5
  m_EditorClassIdentifier: 
  m_name: Picapinos
  m_description: "El pico picapinos (Dendrocopos major) es una especie de ave piciforme
    de la familia Picidae. Es el que posee un plumaje m\xE1s llamativo y su identificaci\xF3n
    no ofrece dudas cuando se le distingue posado contra el tronco de un \xE1rbol.
    La subespecie hispanus ha sido asignada a los picos carpinteros que viven en la
    pen\xEDnsula Ib\xE9rica. Se caracteriza por poseer un plumaje que en conjunto
    resulta m\xE1s oscuro que el de otras subespecies europeas. "
  m_image: {fileID: 21300000, guid: 8f9d7a602ef7e6a4ab625ae81234e106, type: 3}
  m_sound: {fileID: 8300000, guid: f8c086022c528ed45a465dde7129a0dc, type: 3}
