%YAML 1.1
%TAG !u! tag:unity3d.com,2011:
--- !u!114 &11400000
MonoBehaviour:
  m_ObjectHideFlags: 0
  m_CorrespondingSourceObject: {fileID: 0}
  m_PrefabInstance: {fileID: 0}
  m_PrefabAsset: {fileID: 0}
  m_GameObject: {fileID: 0}
  m_Enabled: 1
  m_EditorHideFlags: 0
  m_Script: {fileID: 11500000, guid: 3406569e8b5672348a197c3449a86d32, type: 3}
  m_Name: Bird 1
  m_EditorClassIdentifier: 
  m_name: Abubilla
  m_description: "La abubilla\u200B (Upupa epops) es una especie de ave bucerotiformes
    de la familia Upupidae;3 No obstante, en la taxonom\xEDa de Sibley-Ahlquist, Upupa
    es separado en un orden propio, los Upupiformes. Especie diurna, solitaria, territorial
    y migratoria."
  m_image: {fileID: 21300000, guid: 6266ef405f5428547a221a6bee64553e, type: 3}
  m_sound: {fileID: 8300000, guid: 8e7a1fe6b04487e49bf093df1974a695, type: 3}
