%YAML 1.1
%TAG !u! tag:unity3d.com,2011:
--- !u!114 &11400000
MonoBehaviour:
  m_ObjectHideFlags: 0
  m_CorrespondingSourceObject: {fileID: 0}
  m_PrefabInstance: {fileID: 0}
  m_PrefabAsset: {fileID: 0}
  m_GameObject: {fileID: 0}
  m_Enabled: 1
  m_EditorHideFlags: 0
  m_Script: {fileID: 11500000, guid: c7a7c8c8a32ded34aa233908bc5520f5, type: 3}
  m_Name: 02_X_Disp
  m_EditorClassIdentifier: 
  m_name: Cruziana
  m_description: "Cruziana es un icnog\xE9nero de icnof\xF3sil \u2014huella de actividad
    de un ser vivo\u2014 que corresponde a las huellas de reptaci\xF3n de trilobites
    en los fondos marinos del Paleozoico (hasta el Dev\xF3nico), desde hace de unos
    570 a 360 millones de a\xF1os atr\xE1s."
  m_image: {fileID: 0}
  m_sound: {fileID: 0}
  m_imageArray:
  - {fileID: 21300000, guid: dfbe292beb63aae489bb0a6d455e8a67, type: 3}
