%YAML 1.1
%TAG !u! tag:unity3d.com,2011:
--- !u!114 &11400000
MonoBehaviour:
  m_ObjectHideFlags: 0
  m_CorrespondingSourceObject: {fileID: 0}
  m_PrefabInstance: {fileID: 0}
  m_PrefabAsset: {fileID: 0}
  m_GameObject: {fileID: 0}
  m_Enabled: 1
  m_EditorHideFlags: 0
  m_Script: {fileID: 11500000, guid: 3406569e8b5672348a197c3449a86d32, type: 3}
  m_Name: 09_Ortoceras
  m_EditorClassIdentifier: 
  m_name: Ortoceras
  m_description: 
  m_image: {fileID: 21300000, guid: 0e3eb29338f548547ab1a5709d5c11a9, type: 3}
