%YAML 1.1
%TAG !u! tag:unity3d.com,2011:
--- !u!114 &11400000
MonoBehaviour:
  m_ObjectHideFlags: 0
  m_CorrespondingSourceObject: {fileID: 0}
  m_PrefabInstance: {fileID: 0}
  m_PrefabAsset: {fileID: 0}
  m_GameObject: {fileID: 0}
  m_Enabled: 1
  m_EditorHideFlags: 0
  m_Script: {fileID: 11500000, guid: c7a7c8c8a32ded34aa233908bc5520f5, type: 3}
  m_Name: 09_X_Disp
  m_EditorClassIdentifier: 
  m_name: Ortoceras
  m_description: "Orthoceras (del griego, orthos, recto y keras, cuerno; \"cuerno
    recto\") es un g\xE9nero extinto de moluscos cefal\xF3podos cuya especie tipo,
    O. regulare, vivi\xF3 en el Ordov\xEDcico hasta el Tri\xE1sico. Este g\xE9nero
    se denomina a veces Orthoceratites, y a veces mal denominado como Orthocera u
    Orthocerus. Probablemente fue pariente del Cameroceras."
  m_image: {fileID: 0}
  m_sound: {fileID: 0}
  m_imageArray:
  - {fileID: 21300000, guid: 0e3eb29338f548547ab1a5709d5c11a9, type: 3}
