%YAML 1.1
%TAG !u! tag:unity3d.com,2011:
--- !u!114 &11400000
MonoBehaviour:
  m_ObjectHideFlags: 0
  m_CorrespondingSourceObject: {fileID: 0}
  m_PrefabInstance: {fileID: 0}
  m_PrefabAsset: {fileID: 0}
  m_GameObject: {fileID: 0}
  m_Enabled: 1
  m_EditorHideFlags: 0
  m_Script: {fileID: 11500000, guid: c7a7c8c8a32ded34aa233908bc5520f5, type: 3}
  m_Name: DisplayableData 3
  m_EditorClassIdentifier: 
  m_name: Oropendola
  m_description: "Es un ave inteligente y escurridiza, de vuelos r\xE1pidos y cortos
    entre las ramas aunque alcanza vuelos muy altos en sus migraciones. Su plumaje
    dorado hace muy f\xE1cil confundirla con destellos solares. Construye sus nidos
    con gran velocidad, nidifica en bosques con preferencia por los cursos de agua.
    Son mon\xF3gamos, territoriales y migratorios. Ponen habitualmente dos o tres
    huevos, pero pueden llegar a seis."
  m_image: {fileID: 21300000, guid: 4f3463b3114047b418f1935133964b46, type: 3}
  m_sound: {fileID: 8300000, guid: 57303fdccba22c846bd4bb18825c06e5, type: 3}
  m_imageArray:
  - {fileID: 21300000, guid: feaf264b6c0fd0d43a7ac9b4b7f78d45, type: 3}
  - {fileID: 21300000, guid: c409c3322f0e3454bbed89ac83161eea, type: 3}
  - {fileID: 21300000, guid: f414650679c931f47945dcaa4ae6d829, type: 3}
  - {fileID: 21300000, guid: 33a433bc6e4fa604cbd4f645837cb298, type: 3}
