%YAML 1.1
%TAG !u! tag:unity3d.com,2011:
--- !u!1045 &1
EditorBuildSettings:
  m_ObjectHideFlags: 0
  serializedVersion: 2
  m_Scenes:
  - enabled: 1
    path: Assets/zzMyAssets/Scene/PreLoad.unity
    guid: c7f88df6000a92d48add52cef4a46877
  - enabled: 1
    path: Assets/zzMyAssets/Scene/CompanionSceneVF.unity
    guid: 6738959bd896e864cb154131729297e0
  m_configObjects: {}
