%YAML 1.1
%TAG !u! tag:unity3d.com,2011:
--- !u!114 &11400000
MonoBehaviour:
  m_ObjectHideFlags: 0
  m_CorrespondingSourceObject: {fileID: 0}
  m_PrefabInstance: {fileID: 0}
  m_PrefabAsset: {fileID: 0}
  m_GameObject: {fileID: 0}
  m_Enabled: 1
  m_EditorHideFlags: 0
  m_Script: {fileID: 11500000, guid: 3406569e8b5672348a197c3449a86d32, type: 3}
  m_Name: WrongPlaceholder 5
  m_EditorClassIdentifier: 
  m_name: WrongPlaceholder
  m_description: 
  m_image: {fileID: 21300000, guid: 826d50acd6c2ac8428a6894337209059, type: 3}
  m_sound: {fileID: 0}
